Curso análisis de datos 1. Sociología UFLO - Ejercicio Práctico: Transformación Condicional y Funciones con map()
…
La tabla muestra para cada municipio los resultados de indicadores por año

veamos los inicios y fines de la serie histórica

trayectorias %>% 
  group_by(municipio_id) %>% 
  summarise(anio_de_inicio_serie = min(anio),
            anio_de_fin_serie = max(anio))

# A tibble: 135 × 3
   municipio_id anio_de_inicio_serie anio_de_fin_serie
          <int>                <int>             <int>
 1         6007                 2012              2022
 2         6014                 2012              2022
 3         6021                 2012              2022
 4         6028                 2012              2022
 5         6035                 2012              2022
 6         6042                 2012              2022
 7         6049                 2012              2022
 8         6056                 2012              2022
 9         6063                 2012              2022
10         6070                 2012              2022
# ℹ 125 more rows
…
